Modeling
…
# Apply LDA
lda_model <- LDA(dtm, k = 3, control = list(seed = 123))

# Extract topics
topics <- tidy(lda_model, matrix = "beta")

# View top terms per topic
top_terms <- topics |> 
  group_by(topic) |> 
  slice_max(beta, n = 10) |> 
  ungroup()

top_terms

## # A tibble: 30 × 3
##    topic term           beta
##    <int> <chr>         <dbl>
##  1     1 shooting     0.0686
##  2     1 wounded      0.0494
##  3     1 shot         0.0332
##  4     1 party        0.0281
##  5     1 killed       0.0272
##  6     1 neighborhood 0.0233
##  7     1 people       0.0232
##  8     1 fatally      0.0156
##  9     1 fire         0.0152
## 10     1 escalated    0.0146
## # ℹ 20 more rows
…
